,no_perm
0,0.41120264891169944
1,0.4051729003455804
2,0.4086370599834987
3,0.3603491891796108
4,0.34278147938769365
5,0.3758021156998879
6,0.40526509539233024
7,0.3946134248998372
8,0.39156094676089753
9,0.4389076894191102
10,0.3815319573664808
11,0.35781808494701783
12,0.37194565391164597
13,0.3627946167992279
14,0.3587452874920006
15,0.36078040029275604
16,0.3697568501531039
17,0.3775979589999119
18,0.34763553814903575
19,0.3987608081041451
20,0.4333184817239463
21,0.42844519814905196
22,0.4600570013116683
23,0.4188983367482883
24,0.37676791901748047
25,0.41059310354616935
26,0.3348758274620866
27,0.3338062515666563
28,0.31007005941596516
29,0.31613677606756135
30,0.31954753683382303
31,0.40728358319919633
32,0.4231656920093028
33,0.4408104322292438
34,0.4025099862160554
35,0.4079195419826336
36,0.41822241778785485
37,0.42437366430852586
38,0.44181610015943934
39,0.4665355111425653
40,0.49128122250298933
41,0.45119252906761587
42,0.41672475342285115
43,0.42289554512758787
44,0.419719631431053
45,0.37845607540897236
46,0.36582278028488663
47,0.36519537170537786
48,0.35638905605508436
49,0.33429843043228596
50,0.331683703901598
51,0.3621148254334605
52,0.39414011902991913
53,0.4173301355880411
54,0.4306112363416917
55,0.4411739972724456
56,0.42955874102740327
57,0.42036008613737935
58,0.42007435262503967
59,0.4319997163201665
60,0.4275555066783625
61,0.4033862907971552
62,0.4158245994459558
63,0.46281424829311707
64,0.4626862839545689
65,0.4396567080742639
66,0.4400014246877996
67,0.4379753042823478
68,0.40381739266896255
69,0.38932978619992736
70,0.3705380521289364
71,0.36287503882949623
72,0.3506319543819711
73,0.3365666416367029
74,0.3448731121004864
75,0.38660949333701755
76,0.4126577837552219
77,0.40416986780174735
78,0.3748611722102123
79,0.35133264599831143
80,0.3512861397713382
81,0.3851976581285448
82,0.4074697591533982
83,0.38352945566814844
84,0.38686110587279643
85,0.3896242833154365
86,0.39348624099181595
87,0.41512169959783435
88,0.44612526810659825
89,0.41529141563086514
90,0.4054881371774412
91,0.3880169911706363
92,0.3836399199478962
93,0.37649046728915075
94,0.38210277451925545
95,0.39143080011089826
96,0.4255083004601836
97,0.4184821147280959
98,0.3801288159777913
99,0.35329331954081555
100,0.3534064584842528
101,0.36416736617286316
102,0.4241313293780516
103,0.46709048297143807
104,0.47899010739386455
105,0.4297190633572778
106,0.3894076182881065
107,0.35464932453081316
108,0.35349662328000786
109,0.3961186386471487
110,0.45576735904075805
111,0.44761195257294706
112,0.4465952331544194
113,0.43897783370283855
114,0.4220130230119376
115,0.40260609419483806
116,0.41753192770360614
117,0.45755704498785454
118,0.45300097641772924
119,0.38541245713530137
120,0.3354626410780302
121,0.31734408756186805
122,0.339131622891236
123,0.37171551543256826
124,0.3834767992885487
125,0.4072583313282281
126,0.41472906567030254
127,0.39896012212671367
128,0.4001827928848548
129,0.37319716003292763
130,0.36528704205586915
131,0.3728988911666743
132,0.36634828288117866
133,0.3959508623859233
134,0.4763508927428643
135,0.4640220797159406
136,0.42218798754970105
137,0.39983165568578305
138,0.3055883253161231
139,0.3629433043049716
140,0.38924585239902393
141,0.4352520843987211
142,0.47092995120907627
143,0.3777454699732636
144,0.3909658101495032
145,0.361034394178058
146,0.33792944064248176
147,0.41331928378675714
148,0.5395558790432576
149,0.5208601189714556
150,0.5159042918990155
151,0.48445363602257263
152,0.3503636218136103
153,0.410238355783637
154,0.42778838771360733
155,0.4398243757256934
156,0.4042464417941767
157,0.35904165586250786
158,0.3650688282546996
159,0.38246780724293444
160,0.3648857789442469
161,0.32515135284692115
162,0.3565939751346282
163,0.3464716595304759
164,0.34810568815635456
165,0.37430444665672297
166,0.33083632131927415
167,0.32005150693746287
168,0.34201178958541745
169,0.33765595241539514
170,0.34627227522794085
171,0.3452181846355612
172,0.338831712467579
173,0.3387679905563973
174,0.34404949681730845
175,0.34444235123784334
176,0.38696792521837076
177,0.3964930840040981
178,0.4093743792112503
179,0.3696914357036882
180,0.44976109690761074
181,0.3450881192834258
182,0.3733075865816541
183,0.3356361184484241
184,0.3304063228225758
185,0.3258577406099391
186,0.4272719961482105
187,0.43165053935621356
188,0.4317662874858269
189,0.42755467983476014
190,0.33339677379364435
191,0.3538360764413179
192,0.3368859273911766
193,0.38010894361917463
194,0.3874916980975008
195,0.36373033027818075
196,0.43654218922836213
197,0.43468109608427746
198,0.43439329974734947
199,0.4163978289019393
200,0.40622898189940326
201,0.3877670110859699
202,0.3800385457664738
203,0.39042625563735195
204,0.3930759266581644
205,0.40172851776352136
206,0.4025563201414586
207,0.3877682407051288
208,0.33056657793100835
209,0.32587180624664414
210,0.3581019610929119
211,0.38898895806069994
212,0.39518426560096614
213,0.465579330504501
214,0.41446933061930635
215,0.3611021771385094
216,0.3473204232321742
217,0.36344631570323177
218,0.3751748488548749
219,0.3426320244904774
220,0.3415042379438653
221,0.42474712907402645
222,0.4210064774745572
223,0.3875135665774583
224,0.3300029889530861
225,0.36391029582745016
226,0.338480035178263
227,0.3224811366710238
228,0.3438240271611386
229,0.34096100213712266
230,0.37947594042100197
231,0.3376748125057643
232,0.3795175103815639
233,0.3339128663462447
234,0.3621029408661
235,0.37277750147376026
236,0.40857004408730113
237,0.3766710327836784
238,0.35197642521326716
239,0.3645027347205383
240,0.4030993915837483
241,0.44172800031224607
242,0.3962383161185645
243,0.33442937949018386
244,0.33878510589728256
