,no_perm
0,0.3542497637375018
1,0.3312038342111665
2,0.33251913099524644
3,0.3459714071575955
4,0.35145609337444195
5,0.37381916229108847
6,0.36897081413063326
7,0.3805104265165625
8,0.36906635637166796
9,0.35644798775891395
10,0.3486112351038219
11,0.35075408284799664
12,0.3652120279358283
13,0.3601320642975684
14,0.33959046786504266
15,0.3496911901826862
16,0.352065469054803
17,0.35799979930874226
18,0.3649053955128215
19,0.3375431114616938
20,0.36002193940629645
21,0.3599535760105098
22,0.3509000929087684
23,0.36145615513652557
24,0.3618852904345795
25,0.34764295656771554
26,0.33576161247065645
27,0.37543952939065556
28,0.381926685943536
29,0.37455077169015266
30,0.40853267048922526
31,0.3875648431784913
32,0.3717098950124824
33,0.33269276919418095
34,0.3238027927238684
35,0.3314870464629043
36,0.32324623161818866
37,0.3480683463259042
38,0.38346885427085126
39,0.3668088151049862
40,0.36682763867978924
41,0.3684646333711074
42,0.3784170630688981
43,0.38839657979706305
44,0.37009970791099744
45,0.32310457465791587
46,0.32510868698166295
47,0.38242155169500247
48,0.381997986966637
49,0.4132101065802779
50,0.43012629666867136
51,0.42377264098158796
52,0.37948775284438435
53,0.3635495789340512
54,0.4591075114555864
55,0.4487036964228819
56,0.46153626814397425
57,0.44555339192832716
58,0.41027678604412093
59,0.41809352537343053
60,0.42575339366902837
61,0.4321616922957834
62,0.40991143714260914
63,0.41647876152064783
64,0.4310831803485647
65,0.4007926164641141
66,0.3814849647063224
67,0.35452171655167747
68,0.3508572498030585
69,0.36992643002117775
70,0.387548634659277
71,0.37665312449789845
72,0.37446426193366744
73,0.3936952109051132
74,0.38711387222764904
75,0.3933682100658005
76,0.431634246560731
77,0.3766443657504688
78,0.38594855890345536
79,0.35790509266783344
80,0.4016183065688823
81,0.40941997443142286
82,0.34280465585904835
83,0.338794233306138
84,0.35736299880831707
85,0.38688156165869414
86,0.3828582559384421
87,0.37206655389699644
88,0.3903773751787901
89,0.37315954100976984
90,0.36758853419233606
91,0.37161848504786216
92,0.3608905827182615
93,0.3574805579643503
94,0.40298110394579495
95,0.4421351831497393
96,0.4518463358816318
97,0.45712164198037336
98,0.39945935857617887
99,0.3692257865503097
100,0.3740054361301482
101,0.37659572733029223
102,0.348438923159054
103,0.34327782955033337
104,0.3061213655020121
105,0.35425065359440133
106,0.3680581251351863
107,0.3661069865839244
108,0.3691092085324455
109,0.38036453732239006
110,0.40470065361283625
111,0.4337327414775794
112,0.3717473226824174
113,0.33785222564084827
114,0.36577151505156874
115,0.3747469432363665
116,0.382571162664951
117,0.38340374501917934
118,0.3565921993569944
119,0.36348870722067217
120,0.39171618567464833
121,0.3958033416557179
122,0.4019739336867337
123,0.40996531748403725
124,0.39091646534033625
125,0.3699126290454149
126,0.3656384049401963
127,0.3569384222260986
128,0.34591515262082356
129,0.3941906219282048
130,0.3991921567473038
131,0.38442241253926035
132,0.3613364024350397
133,0.3324440481727178
134,0.39894800025060034
135,0.4245800515117332
136,0.4053494120640781
137,0.37956157493379544
138,0.38058496859351904
139,0.3826799327983788
140,0.4046214094717546
141,0.4040207221935255
142,0.40117089719828797
143,0.3772939259355608
144,0.34106207454634146
145,0.34778940712203366
146,0.3572043143834276
147,0.35118244364115375
148,0.3604878808022115
149,0.3512397021948254
150,0.34471673470889136
151,0.3445066133416704
152,0.33925597744777275
153,0.3482932596842649
154,0.3325371251208119
155,0.3409119289398566
156,0.3391362801725216
157,0.3466723742019828
158,0.3463654082306463
159,0.38035196109592145
160,0.36613569206247426
161,0.3480929605970375
162,0.3567190629179844
163,0.38073696094798287
164,0.37558262491777694
165,0.4310133946883258
166,0.42880963149596824
167,0.4192909073512625
168,0.4483973611198994
169,0.4222009243324382
170,0.38839809392984703
171,0.3538761915675763
172,0.34009263911872867
173,0.3464155920324499
174,0.3408569988663789
175,0.3493340371312567
176,0.3606975153546721
177,0.39394906513547456
178,0.3818260439030994
179,0.36898390350000915
180,0.41762475811498423
181,0.44589182381874415
182,0.39579052220231214
183,0.42366738471273857
184,0.43181788715251723
185,0.39116174608108967
186,0.3741209323999914
187,0.35425569398454154
188,0.315636915716547
189,0.3299983807713105
190,0.35826384275287004
191,0.3947601626070175
192,0.4368978826813729
193,0.45165352031454326
194,0.4200699496477391
195,0.39210496044641374
196,0.3437359794584952
197,0.3362622814858981
198,0.33461279639948
199,0.32957353001560147
200,0.3356950118580307
201,0.34408199637539655
202,0.3634505893200098
203,0.3812048344614313
204,0.3886682547978472
205,0.4035352657470092
206,0.40757616425599585
207,0.40183273003336895
208,0.3964028456839234
209,0.40105729605603235
210,0.3947972515591878
211,0.38902153683177787
212,0.38827768515435696
213,0.352632940991495
214,0.38094705784482025
215,0.40789782656598694
216,0.4278448702179745
217,0.4162618517036505
218,0.37419089641984715
219,0.359070994522625
220,0.34327916753607257
221,0.39661846242380605
222,0.4194089180099094
223,0.43596790434498633
224,0.44770170974535767
225,0.3889828855997204
226,0.3931428374484875
227,0.3792542551609141
228,0.40248569090718744
229,0.43565114854425
230,0.473995181419125
231,0.4422689251027583
232,0.3727189948282393
233,0.3756311851935585
234,0.34631280326379177
235,0.3261027566727866
236,0.3303593760424957
237,0.3970110957613583
238,0.39861618095854373
239,0.4024779493492445
240,0.42233364984056687
241,0.4446669142719456
242,0.4205732124493941
243,0.34391459061103474
244,0.34430301168895666
245,0.36272937947181066
